{
  "Version": "2012-10-17",
  "Statement": [
    {
      "Effect": "Allow",
      "Action": [
        "ecr:*"
      ],
      "Resource": "arn:aws:ecr:us-east-1:*:repository/recipe-app-api-proxy"
    },
    {
      "Effect": "Allow",
      "Action": [
        "ecr:GetAuthorizationToken"
      ],
      "Resource": "*"
    }
  ]
}
